CMSC/LING/STAT 208: ML - FINAL PROJECT
…
FIFA_19$Offensive_WR <- factor(FIFA_19$Offensive_WR, levels=c('High', 'Medium', 'Low'))

levels(FIFA_19$Offensive_WR)

## [1] "High"   "Medium" "Low"

# Get rid of Defensive_WR 

FIFA_19 <- FIFA_19 %>% dplyr::select(-Defensive_WR)

# Height

FIFA_19 %>% count(Height)

## # A tibble: 21 x 2
##    Height     n
##    <fct>  <int>
##  1 5'1        3
##  2 5'10    2479
##  3 5'11    2159
##  4 5'2        5
##  5 5'3       18
##  6 5'4       30
##  7 5'5      145
##  8 5'6      316
##  9 5'7      905
## 10 5'8      946
## #  with 11 more rows
…
